﻿<?xml version="1.0" encoding="utf-8"?>
<svg version="1.1" xmlns:xlink="http://www.w3.org/1999/xlink" width="72px" height="55px" xmlns="http://www.w3.org/2000/svg">
  <g transform="matrix(1 0 0 1 -615 -182 )">
    <path d="M 665.9 235.560320283002  L 686.369197022285 209.5  L 665.9 183.439679716998  L 665.9 197.35  L 615.5 197.35  L 615.5 221.65  L 665.9 221.65  L 665.9 235.560320283002  Z " fill-rule="nonzero" fill="#ffffff" stroke="none" />
    <path d="M 665.4 237  L 687 209.5  L 665.4 182  L 665.4 196.85  L 615 196.85  L 615 222.15  L 665.4 222.15  L 665.4 237  Z M 685.73839404457 209.5  L 666.4 234.120640566003  L 666.4 221.15  L 616 221.15  L 616 197.85  L 666.4 197.85  L 666.4 184.879359433997  L 685.73839404457 209.5  Z " fill-rule="nonzero" fill="#797979" stroke="none" />
  </g>
</svg>