﻿<?xml version="1.0" encoding="utf-8"?>
<svg version="1.1" xmlns:xlink="http://www.w3.org/1999/xlink" width="300px" height="170px" xmlns="http://www.w3.org/2000/svg">
  <defs>
    <mask fill="white" id="clip1">
      <path d="M 351 613  L 391 613  L 391 635  L 351 635  Z M 220 538  L 520 538  L 520 708  L 220 708  Z " fill-rule="evenodd" />
    </mask>
  </defs>
  <g transform="matrix(1 0 0 1 -220 -538 )">
    <path d="M 220.5 538.5  L 519.5 538.5  L 519.5 707.5  L 220.5 707.5  L 220.5 538.5  Z " fill-rule="nonzero" fill="#f2f2f2" stroke="none" />
    <path d="M 220.5 538.5  L 519.5 538.5  L 519.5 707.5  L 220.5 707.5  L 220.5 538.5  Z " stroke-width="1" stroke="#797979" fill="none" />
    <path d="M 220.767666634572 538.435011092924  L 519.232333365428 707.564988907076  M 519.232333365428 538.435011092924  L 220.767666634572 707.564988907076  " stroke-width="1" stroke="#797979" fill="none" mask="url(#clip1)" />
  </g>
</svg>