﻿<?xml version="1.0" encoding="utf-8"?>
<svg version="1.1" xmlns:xlink="http://www.w3.org/1999/xlink" width="705px" height="225px" xmlns="http://www.w3.org/2000/svg">
  <g transform="matrix(1 0 0 1 -1372 -665 )">
    <path d="M 1372.5 665.5  L 2076.5 665.5  L 2076.5 889.5  L 1372.5 889.5  L 1372.5 665.5  Z " fill-rule="nonzero" fill="#f2f2f2" stroke="none" />
    <path d="M 1372.5 665.5  L 2076.5 665.5  L 2076.5 889.5  L 1372.5 889.5  L 1372.5 665.5  Z " stroke-width="1" stroke="#797979" fill="none" />
    <path d="M 1373.49249943091 665.476329605609  L 2075.50750056909 889.523670394391  M 2075.50750056909 665.476329605609  L 1373.49249943091 889.523670394391  " stroke-width="1" stroke="#797979" fill="none" />
  </g>
</svg>