﻿<?xml version="1.0" encoding="utf-8"?>
<svg version="1.1" xmlns:xlink="http://www.w3.org/1999/xlink" width="236px" height="233px" xmlns="http://www.w3.org/2000/svg">
  <g transform="matrix(1 0 0 1 -1841 -303 )">
    <path d="M 1841.5 303.5  L 2076.5 303.5  L 2076.5 535.5  L 1841.5 535.5  L 1841.5 303.5  Z " fill-rule="nonzero" fill="#f2f2f2" stroke="none" />
    <path d="M 1841.5 303.5  L 2076.5 303.5  L 2076.5 535.5  L 1841.5 535.5  L 1841.5 303.5  Z " stroke-width="1" stroke="#797979" fill="none" />
    <path d="M 1841.36038886138 303.355807647041  L 2076.63961113862 535.644192352959  M 2076.63961113862 303.355807647041  L 1841.36038886138 535.644192352959  " stroke-width="1" stroke="#797979" fill="none" />
  </g>
</svg>