﻿<?xml version="1.0" encoding="utf-8"?>
<svg version="1.1" xmlns:xlink="http://www.w3.org/1999/xlink" width="75px" height="25px" viewBox="412 222  75 25" xmlns="http://www.w3.org/2000/svg">
  <path d="M 413 223  L 486 223  L 486 246  L 413 246  L 413 223  Z " fill-rule="nonzero" fill="#f0f0f0" stroke="none" />
</svg>